sim/block_sim/decode/immediate_generator.vcd
$version Generated by VerilatedVcd $end
$timescale 1ps $end
 $scope module TOP $end
  $scope module cpu_params $end
   $var wire 32 ) XLEN [31:0] $end
   $var wire 32 ) INSTR_WIDTH [31:0] $end
   $var wire 32 ) REG_COUNT [31:0] $end
   $var wire 32 * REG_ADDR_W [31:0] $end
   $var wire 32 ) ADDR_WIDTH [31:0] $end
   $var wire 32 + IMEM_DEPTH [31:0] $end
   $var wire 32 + DMEM_DEPTH [31:0] $end
   $var wire 32 , WORD_BYTES [31:0] $end
   $var wire 32 - PC_RESET [31:0] $end
  $upscope $end
  $scope module immediate_generator_tb $end
   $var wire 32 # instruction [31:0] $end
   $var wire 3 $ imm_type [2:0] $end
   $var wire 32 ( imm [31:0] $end
   $var wire 32 % expected [31:0] $end
   $var wire 32 & errors [31:0] $end
   $var wire 1 ' compute_expected__Vstatic__sign $end
   $scope module dut $end
    $var wire 32 # instruction [31:0] $end
    $var wire 3 $ imm_type [2:0] $end
    $var wire 32 ( imm [31:0] $end
   $upscope $end
  $upscope $end
 $upscope $end
$enddefinitions $end


#0
b01111001011101100111001111000100 #
b010 $
b00000000000000000000000000000000 %
b00000000000000000000000000000000 &
0'
b00000000000000000000011110000111 (
b00000000000000000000000000100000 )
b00000000000000000000000000000101 *
b00000000000000000000010000000000 +
b00000000000000000000000000000100 ,
b00000000000000000000000000000000 -
#1
b10011110111111011101010100000010 #
b00000000000000000000011110000111 %
b11111111111111111111100111101010 (
#2
b10010010000101111000001101111000 #
b11111111111111111111100111101010 %
1'
b11111111111111111111100100100110 (
#3
b11001010101001001001111010110110 #
b11111111111111111111100100100110 %
b11111111111111111111110010111101 (
#4
b01111101011011111111001110110111 #
b011 $
b11111111111111111111110010111101 %
b00000000000000000000111111000110 (
#5
b01101111100111100001011100100001 #
b101 $
b00000000000000000000111111000110 %
0'
b00000000000011100001111011111000 (
#6
b11011111100011001010111111000101 #
b010 $
b00000000000011100001111011111000 %
b11111111111111111111110111111111 (
#7
b10100100010100011111111101100010 #
b101 $
b11111111111111111111110111111111 %
1'
b11111111111100011111101001000100 (
#8
b10101101111110111100100100010010 #
b010 $
b11111111111100011111101001000100 %
b11111111111111111111101011010010 (
#9
b10110100001100100011101111111101 #
b11111111111111111111101011010010 %
b11111111111111111111101101010111 (
#10
b00000110101011011111010100111011 #
b100 $
b11111111111111111111101101010111 %
b00000110101011011111000000000000 (
#11
b11101001110011110000010010110010 #
b00000110101011011111000000000000 %
0'
b11101001110011110000000000000000 (
#12
b01011010000110111000010100011110 #
b010 $
b11101001110011110000000000000000 %
1'
b00000000000000000000010110101010 (
#13
b00111101111110001001100110011110 #
b000 $
b00000000000000000000010110101010 %
0'
b00000000000000000000000000000000 (
#14
b10011000001110110110101100010000 #
b00000000000000000000000000000000 %
#15
b01011010010100001110110101100011 #
b010 $
1'
b00000000000000000000010110111010 (
#16
b00000001110010001011101100011101 #
b00000000000000000000010110111010 %
0'
b00000000000000000000000000010110 (
#17
b11101111100100111000111100000110 #
b001 $
b00000000000000000000000000010110 %
b11111111111111111111111011111001 (
#18
b01111001001011010011001001100011 #
b100 $
b11111111111111111111111011111001 %
1'
b01111001001011010011000000000000 (
#19
b01100000011000101011111001101111 #
b000 $
b01111001001011010011000000000000 %
0'
b00000000000000000000000000000000 (
#20
b10010011100000111111111011110111 #
b101 $
b00000000000000000000000000000000 %
b11111111111100111111000100111000 (
#21
b00111100110110011011001110011110 #
b011 $
b11111111111100111111000100111000 %
1'
b00000000000000000000101111000110 (
#22
b11101100010110001100000101101110 #
b100 $
b00000000000000000000101111000110 %
0'
b11101100010110001100000000000000 (
#23
b10100100101110001110001101001111 #
b001 $
b11101100010110001100000000000000 %
1'
b11111111111111111111101001001011 (
#24
b00011001101100101000100110010100 #
b010 $
b11111111111111111111101001001011 %
b00000000000000000000000110010011 (
#25
b10000010011111111111000101100110 #
b101 $
b00000000000000000000000110010011 %
0'
b11111111111111111111100000100110 (
#26
b10111101010101001011001100001001 #
b011 $
b11111111111111111111100000100110 %
1'
b11111111111111111111001111000110 (
#27
b01010111101100001111011000011111 #
b010 $
b11111111111111111111001111000110 %
b00000000000000000000010101101100 (
#28
b01011111000100000011011011000101 #
b101 $
b00000000000000000000010101101100 %
0'
b00000000000000000011110111110000 (
#29
b11011111011100101110101001001011 #
b010 $
b00000000000000000011110111110000 %
b11111111111111111111110111110100 (
#30
b10000110110010001010100011110011 #
b101 $
b11111111111111111111110111110100 %
1'
b11111111111110001010000001101100 (
#31
b10010011110111010111111011101101 #
b100 $
b11111111111110001010000001101100 %
b10010011110111010111000000000000 (
#32
b01111100010010011101010101011101 #
b101 $
b10010011110111010111000000000000 %
b00000000000010011101011111000100 (
#33
b01000011111001011110110100100100 #
b00000000000010011101011111000100 %
0'
b00000000000001011110010000111110 (
#34
b01011101010101001011010010101001 #
b00000000000001011110010000111110 %
b00000000000001001011110111010100 (
#35
b01100110000010000011011100111001 #
b100 $
b00000000000001001011110111010100 %
b01100110000010000011000000000000 (
#36
b00001010100001111110100011101010 #
b01100110000010000011000000000000 %
b00001010100001111110000000000000 (
#37
b11011011011100110000000101010100 #
b00001010100001111110000000000000 %
b11011011011100110000000000000000 (
#38
b01101000101000001100101100100011 #
b101 $
b11011011011100110000000000000000 %
1'
b00000000000000001100011010001010 (
#39
b00100111000010000100001110110011 #
b011 $
b00000000000000001100011010001010 %
0'
b00000000000000000000101001100110 (
#40
b00110100111010010101000011010101 #
b100 $
b00000000000000000000101001100110 %
b00110100111010010101000000000000 (
#41
b00001010100001111011100011001111 #
b101 $
b00110100111010010101000000000000 %
b00000000000001111011000010101000 (
#42
b00100000101110001001010111010111 #
b001 $
b00000000000001111011000010101000 %
b00000000000000000000001000001011 (
#43
b11011010110010000100001011110110 #
b101 $
b00000000000000000000001000001011 %
b11111111111110000100010110101100 (
#44
b10000000111110011111010111101111 #
b11111111111110000100010110101100 %
1'
b11111111111110011111100000001110 (
#45
b10010100111111100100001100111111 #
b001 $
b11111111111110011111100000001110 %
b11111111111111111111100101001111 (
#46
b00001111011101011110001100101010 #
b011 $
b11111111111111111111100101001111 %
b00000000000000000000000011100110 (
#47
b01001011100101001001101010011010 #
b001 $
b00000000000000000000000011100110 %
0'
b00000000000000000000010010111001 (
#48
b00100100100011000001111101010011 #
b00000000000000000000010010111001 %
b00000000000000000000001001001000 (
#49
b10001000111100111011100110001100 #
b100 $
b00000000000000000000001001001000 %
b10001000111100111011000000000000 (
#50
b11001010100101110010101111111011 #
b10001000111100111011000000000000 %
1'
b11001010100101110010000000000000 (
#51
b10010000000011111101100111000010 #
b101 $
b11001010100101110010000000000000 %
b11111111111111111101000100000000 (
#52
b01000011011010000100000111001000 #
b000 $
b11111111111111111101000100000000 %
b00000000000000000000000000000000 (
#53
b00001001011101101010011001100001 #
b001 $
b00000000000000000000000000000000 %
0'
b00000000000000000000000010010111 (
#54
b00000101111010011101110100100001 #
b101 $
b00000000000000000000000010010111 %
b00000000000010011101000001011110 (
#55
b01101101011100010000010001011001 #
b00000000000010011101000001011110 %
b00000000000000010000111011010110 (
#56
b10011100000100000001011010111101 #
b100 $
b00000000000000010000111011010110 %
b10011100000100000001000000000000 (
#57
b01010111101010100010011001100010 #
b000 $
b10011100000100000001000000000000 %
1'
b00000000000000000000000000000000 (
#58
b00000111101110100001111010010000 #
b101 $
b00000000000000000000000000000000 %
0'
b00000000000010100001100001111010 (
#59
b01100011011100011110000001011000 #
b000 $
b00000000000010100001100001111010 %
b00000000000000000000000000000000 (
#60
b11111111110011111101111001100000 #
b101 $
b00000000000000000000000000000000 %
b11111111111111111101011111111100 (
#61
b10010011011011111000110011111100 #
b001 $
b11111111111111111101011111111100 %
1'
b11111111111111111111100100110110 (
#62
b10010101110011111010010001101100 #
b100 $
b11111111111111111111100100110110 %
b10010101110011111010000000000000 (
#63
b01010110010100111001101011100111 #
b101 $
b10010101110011111010000000000000 %
b00000000000000111001110101100100 (
#64
b00011000111001111010111001000111 #
b100 $
b00000000000000111001110101100100 %
0'
b00011000111001111010000000000000 (
#65
b01010111000001010100100000110011 #
b00011000111001111010000000000000 %
b01010111000001010100000000000000 (
#66
b11011010110001110001101010110110 #
b001 $
b01010111000001010100000000000000 %
b11111111111111111111110110101100 (
#67
b01000001011101001110010100111010 #
b011 $
b11111111111111111111110110101100 %
1'
b00000000000000000000010000001010 (
#68
b01001101010001011111011001010011 #
b010 $
b00000000000000000000010000001010 %
0'
b00000000000000000000010011001100 (
#69
b00111000011011011110100011110100 #
b00000000000000000000010011001100 %
b00000000000000000000001110010001 (
#70
b10010000011001000111101100101000 #
b001 $
b00000000000000000000001110010001 %
b11111111111111111111100100000110 (
#71
b10001101001111111101100010010101 #
b010 $
b11111111111111111111100100000110 %
1'
b11111111111111111111100011010001 (
#72
b11010100101110010001101101100100 #
b011 $
b11111111111111111111100011010001 %
b11111111111111111111010101010110 (
#73
b00010101100110101001011110001010 #
b001 $
b11111111111111111111010101010110 %
b00000000000000000000000101011001 (
#74
b00000100110001100111000001111111 #
b011 $
b00000000000000000000000101011001 %
0'
b00000000000000000000000001000000 (
#75
b00110000111010101010100011011100 #
b010 $
b00000000000000000000000001000000 %
b00000000000000000000001100010001 (
#76
b11010111010010101101011011000110 #
b00000000000000000000001100010001 %
b11111111111111111111110101101101 (
#77
b00011001000101101111000001111001 #
b100 $
b11111111111111111111110101101101 %
1'
b00011001000101101111000000000000 (
#78
b11110011100000000100100011010100 #
b00011001000101101111000000000000 %
0'
b11110011100000000100000000000000 (
#79
b00100000110011010111011010111101 #
b001 $
b11110011100000000100000000000000 %
1'
b00000000000000000000001000001100 (
#80
b11000010110111010001001100000010 #
b101 $
b00000000000000000000001000001100 %
0'
b11111111111111010001110000101100 (
#81
b01111110010000101100111001010011 #
b001 $
b11111111111111010001110000101100 %
1'
b00000000000000000000011111100100 (
#82
b01011011000010110110010011011110 #
b010 $
b00000000000000000000011111100100 %
0'
b00000000000000000000010110101001 (
#83
b10001110111000001011000000000100 #
b011 $
b00000000000000000000010110101001 %
b11111111111111111111000011100000 (
#84
b10010010011000011001010011111000 #
b001 $
b11111111111111111111000011100000 %
1'
b11111111111111111111100100100110 (
#85
b11010111001110111010101110000000 #
b101 $
b11111111111111111111100100100110 %
b11111111111110111010110101110010 (
#86
b00101110010100111111111101100001 #
b001 $
b11111111111110111010110101110010 %
b00000000000000000000001011100101 (
#87
b01110111010011001001000011010010 #
b100 $
b00000000000000000000001011100101 %
0'
b01110111010011001001000000000000 (
#88
b00010110000010110111011010111100 #
b011 $
b01110111010011001001000000000000 %
b00000000000000000000100101101100 (
#89
b11010010011101010001101100110001 #
b100 $
b00000000000000000000100101101100 %
b11010010011101010001000000000000 (
#90
b01001111011100010101101011101101 #
b000 $
b11010010011101010001000000000000 %
1'
b00000000000000000000000000000000 (
#91
b01000000100010100110001111010100 #
b001 $
b00000000000000000000000000000000 %
0'
b00000000000000000000010000001000 (
#92
b00010110010110101100000100010100 #
b00000000000000000000010000001000 %
b00000000000000000000000101100101 (
#93
b00110101000100000000101011001011 #
b011 $
b00000000000000000000000101100101 %
b00000000000000000000101101010100 (
#94
b11011110101101110011001111101001 #
b100 $
b00000000000000000000101101010100 %
b11011110101101110011000000000000 (
#95
b11111100000001000111011000100100 #
b11011110101101110011000000000000 %
1'
b11111100000001000111000000000000 (
#96
b10101110001001010010110000000111 #
b11111100000001000111000000000000 %
b10101110001001010010000000000000 (
#97
b11010101110100110011000111010110 #
b011 $
b10101110001001010010000000000000 %
b11111111111111111111110101000010 (
#98
b11000100001000000111110100111001 #
b101 $
b11111111111111111111110101000010 %
b11111111111100000111010001000010 (
#99
b10111010100001101000010011010111 #
b000 $
b11111111111100000111010001000010 %
b00000000000000000000000000000000 (
#100
b00000000000000000000000000000000 %
