sim/block_sim/decode/register_file.vcd
$version Generated by VerilatedVcd $end
$timescale 1ps $end
 $scope module TOP $end
  $scope module cpu_params $end
   $var wire 32 N XLEN [31:0] $end
   $var wire 32 N INSTR_WIDTH [31:0] $end
   $var wire 32 N REG_COUNT [31:0] $end
   $var wire 32 O REG_ADDR_W [31:0] $end
   $var wire 32 N ADDR_WIDTH [31:0] $end
   $var wire 32 P IMEM_DEPTH [31:0] $end
   $var wire 32 P DMEM_DEPTH [31:0] $end
   $var wire 32 Q WORD_BYTES [31:0] $end
   $var wire 32 R PC_RESET [31:0] $end
  $upscope $end
  $scope module register_file_tb $end
   $var wire 1 K clk $end
   $var wire 1 # reset $end
   $var wire 5 $ rs1 [4:0] $end
   $var wire 5 % rs2 [4:0] $end
   $var wire 5 & rd [4:0] $end
   $var wire 32 ' write_data [31:0] $end
   $var wire 1 ( reg_write $end
   $var wire 32 L rs1_value [31:0] $end
   $var wire 32 M rs2_value [31:0] $end
   $var wire 32 ) errors [31:0] $end
   $scope module dut $end
    $var wire 1 K clk $end
    $var wire 1 # reset $end
    $var wire 5 $ rs1 [4:0] $end
    $var wire 5 % rs2 [4:0] $end
    $var wire 5 & rd [4:0] $end
    $var wire 32 ' write_data [31:0] $end
    $var wire 1 ( reg_write $end
    $var wire 32 L rs1_value [31:0] $end
    $var wire 32 M rs2_value [31:0] $end
    $var wire 32 * regs[0] [31:0] $end
    $var wire 32 + regs[1] [31:0] $end
    $var wire 32 , regs[2] [31:0] $end
    $var wire 32 - regs[3] [31:0] $end
    $var wire 32 . regs[4] [31:0] $end
    $var wire 32 / regs[5] [31:0] $end
    $var wire 32 0 regs[6] [31:0] $end
    $var wire 32 1 regs[7] [31:0] $end
    $var wire 32 2 regs[8] [31:0] $end
    $var wire 32 3 regs[9] [31:0] $end
    $var wire 32 4 regs[10] [31:0] $end
    $var wire 32 5 regs[11] [31:0] $end
    $var wire 32 6 regs[12] [31:0] $end
    $var wire 32 7 regs[13] [31:0] $end
    $var wire 32 8 regs[14] [31:0] $end
    $var wire 32 9 regs[15] [31:0] $end
    $var wire 32 : regs[16] [31:0] $end
    $var wire 32 ; regs[17] [31:0] $end
    $var wire 32 < regs[18] [31:0] $end
    $var wire 32 = regs[19] [31:0] $end
    $var wire 32 > regs[20] [31:0] $end
    $var wire 32 ? regs[21] [31:0] $end
    $var wire 32 @ regs[22] [31:0] $end
    $var wire 32 A regs[23] [31:0] $end
    $var wire 32 B regs[24] [31:0] $end
    $var wire 32 C regs[25] [31:0] $end
    $var wire 32 D regs[26] [31:0] $end
    $var wire 32 E regs[27] [31:0] $end
    $var wire 32 F regs[28] [31:0] $end
    $var wire 32 G regs[29] [31:0] $end
    $var wire 32 H regs[30] [31:0] $end
    $var wire 32 I regs[31] [31:0] $end
    $scope module unnamedblk1 $end
     $var wire 32 J i [31:0] $end
    $upscope $end
   $upscope $end
  $upscope $end
 $upscope $end
$enddefinitions $end


#0
1#
b00000 $
b00000 %
b00000 &
b00000000000000000000000000000000 '
0(
b00000000000000000000000000000000 )
b00000000000000000000000000000000 *
b00000000000000000000000000000000 +
b00000000000000000000000000000000 ,
b00000000000000000000000000000000 -
b00000000000000000000000000000000 .
b00000000000000000000000000000000 /
b00000000000000000000000000000000 0
b00000000000000000000000000000000 1
b00000000000000000000000000000000 2
b00000000000000000000000000000000 3
b00000000000000000000000000000000 4
b00000000000000000000000000000000 5
b00000000000000000000000000000000 6
b00000000000000000000000000000000 7
b00000000000000000000000000000000 8
b00000000000000000000000000000000 9
b00000000000000000000000000000000 :
b00000000000000000000000000000000 ;
b00000000000000000000000000000000 <
b00000000000000000000000000000000 =
b00000000000000000000000000000000 >
b00000000000000000000000000000000 ?
b00000000000000000000000000000000 @
b00000000000000000000000000000000 A
b00000000000000000000000000000000 B
b00000000000000000000000000000000 C
b00000000000000000000000000000000 D
b00000000000000000000000000000000 E
b00000000000000000000000000000000 F
b00000000000000000000000000000000 G
b00000000000000000000000000000000 H
b00000000000000000000000000000000 I
b00000000000000000000000000000000 J
0K
b00000000000000000000000000000000 L
b00000000000000000000000000000000 M
b00000000000000000000000000100000 N
b00000000000000000000000000000101 O
b00000000000000000000010000000000 P
b00000000000000000000000000000100 Q
b00000000000000000000000000000000 R
#5
0#
b00101 &
b00000000000000000000000001111011 '
1(
b00000000000000000000000001111011 /
1K
#10
0K
#15
b00101 $
1K
b00000000000000000000000001111011 L
#16
b00000 &
b00000000000000000000001111100111 '
#20
0K
#25
b00000 $
1K
b00000000000000000000000000000000 L
#26
b00110 &
b00000000000000000000001000101011 '
0(
#30
0K
#35
b00110 $
1K
#36
b00010 &
b00001011000111100101110110011100 '
1(
#40
0K
#45
b00010 $
b00001011000111100101110110011100 ,
1K
b00001011000111100101110110011100 L
#46
b00011 &
b01001000110000101110000011100100 '
#50
0K
#55
b00011 $
b01001000110000101110000011100100 -
1K
b01001000110000101110000011100100 L
#56
b01010 &
b10111011110101011000111010111100 '
#60
0K
#65
b01010 $
b10111011110101011000111010111100 4
1K
b10111011110101011000111010111100 L
#66
b01101 &
b00101010000101001111111111100100 '
#70
0K
#75
b01101 $
b00101010000101001111111111100100 7
1K
b00101010000101001111111111100100 L
#76
b10100 &
b11111100110001000111000101010011 '
#80
0K
#85
b10100 $
b11111100110001000111000101010011 >
1K
b11111100110001000111000101010011 L
#86
b01110 &
b10001010100110100111110111100001 '
#90
0K
#95
b01110 $
b10001010100110100111110111100001 8
1K
b10001010100110100111110111100001 L
#96
b01001 &
b00010010010100111111001110000010 '
#100
0K
#105
b01001 $
b00010010010100111111001110000010 3
1K
b00010010010100111111001110000010 L
#106
b10110 &
b01110011010110000001011000110101 '
#110
0K
#115
b10110 $
b01110011010110000001011000110101 @
1K
b01110011010110000001011000110101 L
#116
b10010 &
b01100010111110011010101101010110 '
#120
0K
#125
b10010 $
b01100010111110011010101101010110 <
1K
b01100010111110011010101101010110 L
#126
b11011100011010110100000111110100 '
#130
0K
#135
b11011100011010110100000111110100 <
1K
b11011100011010110100000111110100 L
#136
b00001 &
b11000110011011010100110101011000 '
#140
0K
#145
b00001 $
b11000110011011010100110101011000 +
1K
b11000110011011010100110101011000 L
#146
b10101 &
b01010110110100010000100001011100 '
#150
0K
#155
b10101 $
b01010110110100010000100001011100 ?
1K
b01010110110100010000100001011100 L
#156
b11000 &
b10101101000111110100010110011110 '
#160
0K
#165
b11000 $
b10101101000111110100010110011110 B
1K
b10101101000111110100010110011110 L
#166
b10100 &
b01111011001100110001110011101110 '
#170
0K
#175
b10100 $
b01111011001100110001110011101110 >
1K
b01111011001100110001110011101110 L
#176
b10000 &
b01000000111110110111111101110110 '
#180
0K
#185
b10000 $
b01000000111110110111111101110110 :
1K
b01000000111110110111111101110110 L
#186
b00010 &
b01011001100111111010001011000000 '
#190
0K
#195
b00010 $
b01011001100111111010001011000000 ,
1K
b01011001100111111010001011000000 L
#196
b01010 &
b11000001000110110000111100100010 '
#200
0K
#205
b01010 $
b11000001000110110000111100100010 4
1K
b11000001000110110000111100100010 L
#206
b10010 &
b10000101111011100101101110000001 '
#210
0K
#215
b10010 $
b10000101111011100101101110000001 <
1K
b10000101111011100101101110000001 L
#216
b11101 &
b11000100010101001100001001111000 '
#220
0K
#225
b11101 $
b11000100010101001100001001111000 G
1K
b11000100010101001100001001111000 L
#226
b10000 &
b01100011010101001101101011001110 '
#230
0K
#235
b10000 $
b01100011010101001101101011001110 :
1K
b01100011010101001101101011001110 L
#236
b11000 &
b10010011011110010001101011010001 '
#240
0K
#245
b11000 $
b10010011011110010001101011010001 B
1K
b10010011011110010001101011010001 L
#246
b10110 &
b10011100010000111101100001110111 '
#250
0K
#255
b10110 $
b10011100010000111101100001110111 @
1K
b10011100010000111101100001110111 L
#256
b10011 &
b11110001101010000000110010101000 '
#260
0K
#265
b10011 $
b11110001101010000000110010101000 =
1K
b11110001101010000000110010101000 L
#266
b01010 &
b01110001111100101001000010111011 '
#270
0K
#275
b01010 $
b01110001111100101001000010111011 4
1K
b01110001111100101001000010111011 L
#276
b10001 &
b10111101000010110010111011100010 '
#280
0K
#285
b10001 $
b10111101000010110010111011100010 ;
1K
b10111101000010110010111011100010 L
#286
b01001 &
b11101111111111000001101100011111 '
#290
0K
#295
b01001 $
b11101111111111000001101100011111 3
1K
b11101111111111000001101100011111 L
#296
b10001 &
b11111111100111001011110011100011 '
#300
0K
#305
b10001 $
b11111111100111001011110011100011 ;
1K
b11111111100111001011110011100011 L
#306
b01111 &
b10000001101011011010111110000100 '
#310
0K
#315
b01111 $
b10000001101011011010111110000100 9
1K
b10000001101011011010111110000100 L
#316
b01100 &
b01111001001000011010011000110011 '
#320
0K
#325
b01100 $
b01111001001000011010011000110011 6
1K
b01111001001000011010011000110011 L
#326
b00001 &
b11101110010000100001111010011100 '
#330
0K
#335
b00001 $
b11101110010000100001111010011100 +
1K
b11101110010000100001111010011100 L
#336
b11011 &
b11001110101100110010110011001001 '
#340
0K
#345
b11011 $
b11001110101100110010110011001001 E
1K
b11001110101100110010110011001001 L
#346
b10000 &
b00011011101110010110010111001010 '
#350
0K
#355
b10000 $
b00011011101110010110010111001010 :
1K
b00011011101110010110010111001010 L
#356
b10010 &
b10101110011000010011010001000111 '
#360
0K
#365
b10010 $
b10101110011000010011010001000111 <
1K
b10101110011000010011010001000111 L
#366
b10011 &
b11000011010010011011001011101111 '
#370
0K
#375
b10011 $
b11000011010010011011001011101111 =
1K
b11000011010010011011001011101111 L
#376
b11011011111010001101100101101101 '
#380
0K
#385
b11011011111010001101100101101101 =
1K
b11011011111010001101100101101101 L
#386
b11010 &
b01001110111100101001101001111000 '
#390
0K
#395
b11010 $
b01001110111100101001101001111000 D
1K
b01001110111100101001101001111000 L
#396
b00101 &
b01111101111001110011100011000010 '
#400
0K
#405
b00101 $
b01111101111001110011100011000010 /
1K
b01111101111001110011100011000010 L
#406
b10011 &
b00100010101010100100100101010100 '
#410
0K
#415
b10011 $
b00100010101010100100100101010100 =
1K
b00100010101010100100100101010100 L
#416
b11101 &
b11101000011000111101000110011101 '
#420
0K
#425
b11101 $
b11101000011000111101000110011101 G
1K
b11101000011000111101000110011101 L
#426
b11111 &
b00111001101111000111111110101101 '
#430
0K
#435
b11111 $
b00111001101111000111111110101101 I
1K
b00111001101111000111111110101101 L
#436
b00001 &
b11001110101110010111101100101110 '
#440
0K
#445
b00001 $
b11001110101110010111101100101110 +
1K
b11001110101110010111101100101110 L
#446
b10001 &
b00011111111111111011001100000101 '
#450
0K
#455
b10001 $
b00011111111111111011001100000101 ;
1K
b00011111111111111011001100000101 L
#456
b01011 &
b00101111110110100000010010001001 '
#460
0K
#465
b01011 $
b00101111110110100000010010001001 5
1K
b00101111110110100000010010001001 L
#466
b11101 &
b10000110010110001001111110101111 '
#470
0K
#475
b11101 $
b10000110010110001001111110101111 G
1K
b10000110010110001001111110101111 L
#476
b01011011111000000010011110011101 '
#480
0K
#485
b01011011111000000010011110011101 G
1K
b01011011111000000010011110011101 L
#486
b00011 &
b11011011000111001100111011001111 '
#490
0K
#495
b00011 $
b11011011000111001100111011001111 -
1K
b11011011000111001100111011001111 L
#496
b11101 &
b00001001000101001110001101110111 '
#500
0K
#505
b11101 $
b00001001000101001110001101110111 G
1K
b00001001000101001110001101110111 L
#506
b10100 &
b01011001000001101000011100001011 '
#510
0K
#515
b10100 $
b01011001000001101000011100001011 >
1K
b01011001000001101000011100001011 L
#516
b00001 &
b00011011011110000100001010101111 '
#520
0K
#525
b00001 $
b00011011011110000100001010101111 +
1K
b00011011011110000100001010101111 L
#526
b10000 &
b00010001110110101011001100000010 '
#530
0K
#535
b10000 $
b00010001110110101011001100000010 :
1K
b00010001110110101011001100000010 L
