sim/block_sim/fetch/pc.vcd
$version Generated by VerilatedVcd $end
$timescale 1ps $end
 $scope module TOP $end
  $scope module cpu_params $end
   $var wire 32 * XLEN [31:0] $end
   $var wire 32 * INSTR_WIDTH [31:0] $end
   $var wire 32 * REG_COUNT [31:0] $end
   $var wire 32 + REG_ADDR_W [31:0] $end
   $var wire 32 * ADDR_WIDTH [31:0] $end
   $var wire 32 , IMEM_DEPTH [31:0] $end
   $var wire 32 , DMEM_DEPTH [31:0] $end
   $var wire 32 - WORD_BYTES [31:0] $end
   $var wire 32 . PC_RESET [31:0] $end
  $upscope $end
  $scope module pc_tb $end
   $var wire 32 # pc_next [31:0] $end
   $var wire 1 ( clk $end
   $var wire 1 $ reset $end
   $var wire 1 % pc_write $end
   $var wire 32 ) pc [31:0] $end
   $var wire 32 & expected [31:0] $end
   $var wire 32 ' errors [31:0] $end
   $scope module dut $end
    $var wire 32 # pc_next [31:0] $end
    $var wire 1 ( clk $end
    $var wire 1 $ reset $end
    $var wire 1 % pc_write $end
    $var wire 32 ) pc [31:0] $end
   $upscope $end
  $upscope $end
 $upscope $end
$enddefinitions $end


#0
b00000000000000000000000000000000 #
1$
0%
b00000000000000000000000000000000 &
b00000000000000000000000000000000 '
0(
b00000000000000000000000000000000 )
b00000000000000000000000000100000 *
b00000000000000000000000000000101 +
b00000000000000000000010000000000 ,
b00000000000000000000000000000100 -
b00000000000000000000000000000000 .
#5
0$
1(
#10
0(
#15
b01111001011101100111001111000100 #
1(
#16
#20
0(
#25
b01001000110000101110000011100100 #
1(
#26
#30
0(
#35
b11001010101001001001111010110110 #
1%
b11001010101001001001111010110110 &
1(
b11001010101001001001111010110110 )
#36
#40
0(
#45
b11111100110001000111000101010011 #
1$
b00000000000000000000000000000000 &
1(
b00000000000000000000000000000000 )
#46
#50
0(
#55
b11011111100011001010111111000101 #
0$
0%
1(
#56
#60
0(
#65
b01110011010110000001011000110101 #
1(
#66
#70
0(
#75
b10110100001100100011101111111101 #
1%
b10110100001100100011101111111101 &
1(
b10110100001100100011101111111101 )
#76
#80
0(
#85
b11000110011011010100110101011000 #
0%
1(
#86
#90
0(
#95
b01011010000110111000010100011110 #
1(
#96
#100
0(
#105
b01111011001100110001110011101110 #
1(
#106
#110
0(
#115
b01011010010100001110110101100011 #
1%
b01011010010100001110110101100011 &
1(
b01011010010100001110110101100011 )
#116
#120
0(
#125
b11000001000110110000111100100010 #
b11000001000110110000111100100010 &
1(
b11000001000110110000111100100010 )
#126
#130
0(
#135
b01111001001011010011001001100011 #
b01111001001011010011001001100011 &
1(
b01111001001011010011001001100011 )
#136
#140
0(
#145
b01100011010101001101101011001110 #
1$
b00000000000000000000000000000000 &
1(
b00000000000000000000000000000000 )
#146
#150
0(
#155
b00111100110110011011001110011110 #
0%
1(
#156
#160
0(
#165
b11110001101010000000110010101000 #
1%
1(
#166
#170
0(
#175
b00011001101100101000100110010100 #
0$
0%
1(
#176
#180
0(
#185
b11101111111111000001101100011111 #
1$
1%
1(
#186
#190
0(
#195
b01010111101100001111011000011111 #
0$
b01010111101100001111011000011111 &
1(
b01010111101100001111011000011111 )
#196
#200
0(
#205
b01111001001000011010011000110011 #
1$
0%
b00000000000000000000000000000000 &
1(
b00000000000000000000000000000000 )
#206
#210
0(
#215
b10000110110010001010100011110011 #
1%
1(
#216
#220
0(
#225
b00011011101110010110010111001010 #
1(
#226
#230
0(
#235
b01000011111001011110110100100100 #
1(
#236
#240
0(
#245
b11011011111010001101100101101101 #
0%
1(
#246
#250
0(
#255
b00001010100001111110100011101010 #
0$
1(
#256
#260
0(
#265
b00100010101010100100100101010100 #
1$
1%
1(
#266
#270
0(
#275
b00100111000010000100001110110011 #
1(
#276
#280
0(
#285
b11001110101110010111101100101110 #
1(
#286
#290
0(
#295
b00100000101110001001010111010111 #
0%
1(
#296
#300
0(
#305
b10000110010110001001111110101111 #
1%
1(
#306
#310
0(
#315
b10010100111111100100001100111111 #
0%
1(
#316
#320
0(
#325
b00001001000101001110001101110111 #
0$
1%
b00001001000101001110001101110111 &
1(
b00001001000101001110001101110111 )
#326
#330
0(
#335
b00100100100011000001111101010011 #
1$
0%
b00000000000000000000000000000000 &
1(
b00000000000000000000000000000000 )
#336
#340
0(
#345
b00010001110110101011001100000010 #
1(
#346
#350
0(
#355
b10010000000011111101100111000010 #
1(
#356
#360
0(
#365
b10010011011010001101100001100100 #
1%
1(
#366
#370
0(
#375
b00000101111010011101110100100001 #
1(
#376
#380
0(
#385
b00000010011010010001100011110101 #
0%
1(
#386
#390
0(
#395
b01010111101010100010011001100010 #
0$
1(
#396
#400
0(
#405
b00011100100100001100011101000101 #
1(
#406
#410
0(
#415
b11111111110011111101111001100000 #
1$
1(
#416
#420
0(
#425
b00010011010100011100000100111101 #
0$
1(
#426
#430
0(
#435
b01010110010100111001101011100111 #
1$
1%
1(
#436
#440
0(
#445
b00111101110001111001001101000000 #
0%
1(
#446
#450
0(
#455
b11011010110001110001101010110110 #
1(
#456
#460
0(
#465
b10101100000000110100101001100111 #
1(
#466
#470
0(
#475
b00111000011011011110100011110100 #
0$
1(
#476
#480
0(
#485
b11010010111111010100001101100111 #
1$
1(
#486
#490
0(
#495
b11010100101110010001101101100100 #
1(
#496
#500
0(
#505
b10010001101011110100011100111101 #
1%
1(
#506
#510
0(
#515
b00110000111010101010100011011100 #
0$
0%
1(
#516
#520
0(
#525
b00001001000111110000000001000110 #
1$
1(
#526
#530
0(
#535
b11110011100000000100100011010100 #
0$
1%
b11110011100000000100100011010100 &
1(
b11110011100000000100100011010100 )
#536
#540
0(
#545
b10110111101000100101101100011011 #
b10110111101000100101101100011011 &
1(
b10110111101000100101101100011011 )
#546
#550
0(
#555
b01111110010000101100111001010011 #
1$
0%
b00000000000000000000000000000000 &
1(
b00000000000000000000000000000000 )
#556
#560
0(
#565
b10011000001010010010100011110000 #
0$
1%
b10011000001010010010100011110000 &
1(
b10011000001010010010100011110000 )
#566
#570
0(
#575
b10010010011000011001010011111000 #
1$
0%
b00000000000000000000000000000000 &
1(
b00000000000000000000000000000000 )
#576
#580
0(
#585
b00111010000110000111100101100001 #
1%
1(
#586
#590
0(
#595
b01110111010011001001000011010010 #
0$
0%
1(
#596
#600
0(
#605
b11110001110100111011011001111011 #
1$
1(
