sim/block_sim/fetch/pc_mux.vcd
$version Generated by VerilatedVcd $end
$timescale 1ps $end
 $scope module TOP $end
  $scope module cpu_params $end
   $var wire 32 , XLEN [31:0] $end
   $var wire 32 , INSTR_WIDTH [31:0] $end
   $var wire 32 , REG_COUNT [31:0] $end
   $var wire 32 - REG_ADDR_W [31:0] $end
   $var wire 32 , ADDR_WIDTH [31:0] $end
   $var wire 32 . IMEM_DEPTH [31:0] $end
   $var wire 32 . DMEM_DEPTH [31:0] $end
   $var wire 32 / WORD_BYTES [31:0] $end
   $var wire 32 0 PC_RESET [31:0] $end
  $upscope $end
  $scope module pc_mux_tb $end
   $var wire 32 # pc_plus4 [31:0] $end
   $var wire 32 $ branch_target [31:0] $end
   $var wire 32 % jump_target [31:0] $end
   $var wire 1 & branch $end
   $var wire 1 ' jump $end
   $var wire 32 * pc_next [31:0] $end
   $var wire 32 ( expected [31:0] $end
   $var wire 32 ) errors [31:0] $end
   $scope module dut $end
    $var wire 32 # pc_plus4 [31:0] $end
    $var wire 32 $ branch_target [31:0] $end
    $var wire 32 % jump_target [31:0] $end
    $var wire 1 & branch $end
    $var wire 1 ' jump $end
    $var wire 32 * pc_next [31:0] $end
    $var wire 2 + sel [1:0] $end
    $scope module u_mux3 $end
     $var wire 32 , WIDTH [31:0] $end
     $var wire 32 # a [31:0] $end
     $var wire 32 $ b [31:0] $end
     $var wire 32 % c [31:0] $end
     $var wire 2 + sel [1:0] $end
     $var wire 32 * y [31:0] $end
    $upscope $end
   $upscope $end
  $upscope $end
 $upscope $end
$enddefinitions $end


#0
b01111001011101100111001111000100 #
b00001011000111100101110110011100 $
b10011110111111011101010100000010 %
0&
0'
b01111001011101100111001111000100 (
b00000000000000000000000000000000 )
b01111001011101100111001111000100 *
b00 +
b00000000000000000000000000100000 ,
b00000000000000000000000000000101 -
b00000000000000000000010000000000 .
b00000000000000000000000000000100 /
b00000000000000000000000000000000 0
#1
b10111011110101011000111010111100 #
b11001010101001001001111010110110 $
b00101010000101001111111111100100 %
1&
1'
b10111011110101011000111010111100 (
b10111011110101011000111010111100 *
b11 +
#2
b01101111100111100001011100100001 #
b10001010100110100111110111100001 $
b11011111100011001010111111000101 %
0&
0'
b01101111100111100001011100100001 (
b01101111100111100001011100100001 *
b00 +
#3
b01110011010110000001011000110101 #
b10101101111110111100100100010010 $
b01100010111110011010101101010110 %
1&
b10101101111110111100100100010010 (
b10101101111110111100100100010010 *
b01 +
#4
b00000110101011011111010100111011 #
b11000110011011010100110101011000 $
b11101001110011110000010010110010 %
0&
b00000110101011011111010100111011 (
b00000110101011011111010100111011 *
b00 +
#5
b10101101000111110100010110011110 #
b00111101111110001001100110011110 $
b01111011001100110001110011101110 %
b10101101000111110100010110011110 (
b10101101000111110100010110011110 *
#6
b01011010010100001110110101100011 #
b01011001100111111010001011000000 $
b00000001110010001011101100011101 %
b01011010010100001110110101100011 (
b01011010010100001110110101100011 *
#7
b10000101111011100101101110000001 #
b01111001001011010011001001100011 $
b11000100010101001100001001111000 %
1&
b01111001001011010011001001100011 (
b01111001001011010011001001100011 *
b01 +
#8
b10010011100000111111111011110111 #
b10010011011110010001101011010001 $
b00111100110110011011001110011110 %
b10010011011110010001101011010001 (
b10010011011110010001101011010001 *
#9
b11110001101010000000110010101000 #
b10100100101110001110001101001111 $
b01110001111100101001000010111011 %
0&
b11110001101010000000110010101000 (
b11110001101010000000110010101000 *
b00 +
#10
b10000010011111111111000101100110 #
b11101111111111000001101100011111 $
b10111101010101001011001100001001 %
1&
1'
b10000010011111111111000101100110 (
b10000010011111111111000101100110 *
b11 +
#11
b10000001101011011010111110000100 #
b01011111000100000011011011000101 $
b01111001001000011010011000110011 %
0'
b01011111000100000011011011000101 (
b01011111000100000011011011000101 *
b01 +
#12
b10000110110010001010100011110011 #
b11001110101100110010110011001001 $
b10010011110111010111111011101101 %
0&
1'
b10010011110111010111111011101101 (
b10010011110111010111111011101101 *
b10 +
#13
b10101110011000010011010001000111 #
b01000011111001011110110100100100 $
b11000011010010011011001011101111 %
1&
b10101110011000010011010001000111 (
b10101110011000010011010001000111 *
b11 +
#14
b01100110000010000011011100111001 #
b01001110111100101001101001111000 $
b00001010100001111110100011101010 %
0&
0'
b01100110000010000011011100111001 (
b01100110000010000011011100111001 *
b00 +
#15
b00100010101010100100100101010100 #
b01101000101000001100101100100011 $
b11101000011000111101000110011101 %
1&
1'
b00100010101010100100100101010100 (
b00100010101010100100100101010100 *
b11 +
#16
b00110100111010010101000011010101 #
b11001110101110010111101100101110 $
b00001010100001111011100011001111 %
b00110100111010010101000011010101 (
b00110100111010010101000011010101 *
#17
b00101111110110100000010010001001 #
b11011010110010000100001011110110 $
b10000110010110001001111110101111 %
b00101111110110100000010010001001 (
b00101111110110100000010010001001 *
#18
b10010100111111100100001100111111 #
b11011011000111001100111011001111 $
b00001111011101011110001100101010 %
0'
b11011011000111001100111011001111 (
b11011011000111001100111011001111 *
b01 +
#19
b01011001000001101000011100001011 #
b00100100100011000001111101010011 $
b00011011011110000100001010101111 %
0&
b01011001000001101000011100001011 (
b01011001000001101000011100001011 *
b00 +
#20
b11001010100101110010101111111011 #
b10011111001000000001010111101000 $
b10010000000011111101100111000010 %
1&
b10011111001000000001010111101000 (
b10011111001000000001010111101000 *
b01 +
#21
b10010011011010001101100001100100 #
b00001001011101101010011001100001 $
b10100001100100010011101011100101 %
1'
b10010011011010001101100001100100 (
b10010011011010001101100001100100 *
b11 +
#22
b01101101011100010000010001011001 #
b00000010011010010001100011110101 $
b10011100000100000001011010111101 %
0&
0'
b01101101011100010000010001011001 (
b01101101011100010000010001011001 *
b00 +
#23
b01000101011101101001111111001010 #
b00000111101110100001111010010000 $
b00011100100100001100011101000101 %
b01000101011101101001111111001010 (
b01000101011101101001111111001010 *
#24
b11111111110011111101111001100000 #
b10001101101110000000001101110011 $
b10010011011011111000110011111100 %
1&
b10001101101110000000001101110011 (
b10001101101110000000001101110011 *
b01 +
#25
b01000000110011010101001100001110 #
b01010110010100111001101011100111 $
b01000000001110100101001000110111 %
b01010110010100111001101011100111 (
b01010110010100111001101011100111 *
#26
b01010111000001010100100000110011 #
b11100000011000010001001100011100 $
b11011010110001110001101010110110 %
b11100000011000010001001100011100 (
b11100000011000010001001100011100 *
#27
b10101100000000110100101001100111 #
b01001101010001011111011001010011 $
b11000001000011111011111010000100 %
0&
b10101100000000110100101001100111 (
b10101100000000110100101001100111 *
b00 +
#28
b10010000011001000111101100101000 #
b11010010111111010100001101100111 $
b10001101001111111101100010010101 %
b10010000011001000111101100101000 (
b10010000011001000111101100101000 *
#29
b11011110110111000100000110010101 #
b00010101100110101001011110001010 $
b10010001101011110100011100111101 %
1&
1'
b11011110110111000100000110010101 (
b11011110110111000100000110010101 *
b11 +
#30
b00110000111010101010100011011100 #
b10000000010110101100101111101100 $
b11010111010010101101011011000110 %
0&
b11010111010010101101011011000110 (
b11010111010010101101011011000110 *
b10 +
#31
b11101011111001111101100100000100 #
b11110011100000000100100011010100 $
b01111101000000101100100100110100 %
1&
b11101011111001111101100100000100 (
b11101011111001111101100100000100 *
b11 +
#32
b11000010110111010001001100000010 #
b00011010011111110111100101110001 $
b01111110010000101100111001010011 %
0'
b00011010011111110111100101110001 (
b00011010011111110111100101110001 *
b01 +
#33
b10011000001010010010100011110000 #
b10001110111000001011000000000100 $
b00001010111000010101111001011111 %
0&
1'
b00001010111000010101111001011111 (
b00001010111000010101111001011111 *
b10 +
#34
b11010111001110111010101110000000 #
b00111010000110000111100101100001 $
b00101110010100111111111101100001 %
1&
0'
b00111010000110000111100101100001 (
b00111010000110000111100101100001 *
b01 +
#35
b01100111111100000110101011111100 #
b00010110000010110111011010111100 $
b11110001110100111011011001111011 %
b00010110000010110111011010111100 (
b00010110000010110111011010111100 *
#36
b01001111011100010101101011101101 #
b10111110011010011111100101100100 $
b01000000100010100110001111010100 %
b10111110011010011111100101100100 (
b10111110011010011111100101100100 *
#37
b10101101011011001101100011001011 #
b00110101000100000000101011001011 $
b01010010010110100011001011011011 %
b00110101000100000000101011001011 (
b00110101000100000000101011001011 *
#38
b11111100000001000111011000100100 #
b10000111011011110111011101000010 $
b10101110001001010010110000000111 %
0&
b11111100000001000111011000100100 (
b11111100000001000111011000100100 *
b00 +
#39
b00001011100111001110010100111111 #
b11000100001000000111110100111001 $
b11100010101011101101110011111001 %
1&
b11000100001000000111110100111001 (
b11000100001000000111110100111001 *
b01 +
#40
b10010010011000000001101001110110 #
b10110101001110001111011001111100 $
b11110001010101010111000001000010 %
0&
b10010010011000000001101001110110 (
b10010010011000000001101001110110 *
b00 +
#41
b01011011100001010111011000101011 #
b00110011100000010100000100100111 $
b00110100001111110111010111010010 %
b01011011100001010111011000101011 (
b01011011100001010111011000101011 *
#42
b11000000101110000000010100001001 #
b00110010000110101000101000001111 $
b01010010010011110101000111011100 %
1'
b01010010010011110101000111011100 (
b01010010010011110101000111011100 *
b10 +
#43
b01001011110100001101101101111001 #
b10111000010001100110101010101100 $
b00100010000011001001101010000000 %
1&
0'
b10111000010001100110101010101100 (
b10111000010001100110101010101100 *
b01 +
#44
b00110110111101111000001010001101 #
b01100110001100100101011110101111 $
b01001011111100101111100010001001 %
0&
b00110110111101111000001010001101 (
b00110110111101111000001010001101 *
b00 +
#45
b10000111111000110101100111000110 #
b11101101011001000111000010101011 $
b10100101011010001110101001111000 %
1'
b10100101011010001110101001111000 (
b10100101011010001110101001111000 *
b10 +
#46
b00110011010110011110101001011010 #
b11010101100010011100100001010100 $
b00111010101101111111110000010001 %
1&
b00110011010110011110101001011010 (
b00110011010110011110101001011010 *
b11 +
#47
b00001101010100000111111000010000 #
b00110101111111001010001100010100 $
b10111011000110110111100101110001 %
0&
b10111011000110110111100101110001 (
b10111011000110110111100101110001 *
b10 +
#48
b10000001010001101010010010001100 #
b01000110010010000011000111100110 $
b11001101001010000101110110000010 %
0'
b10000001010001101010010010001100 (
b10000001010001101010010010001100 *
b00 +
#49
b01101100111001110100100011011001 #
b01110100001101011100100101101110 $
b11100011011010010101011110001101 %
b01101100111001110100100011011001 (
b01101100111001110100100011011001 *
#50
b00001110010011011000010010001101 #
b11110101110111001010101001101001 $
b10010011110101011101101011010110 %
1'
b10010011110101011101101011010110 (
b10010011110101011101101011010110 *
b10 +
#51
b11100001011101100001001010110010 #
b01001010100001101001110001010111 $
b10111001100100000101101001001110 %
b10111001100100000101101001001110 (
b10111001100100000101101001001110 *
#52
b01101011110111001100111110101001 #
b11000000000110000110010101000000 $
b10100011011100111110011101000011 %
0'
b01101011110111001100111110101001 (
b01101011110111001100111110101001 *
b00 +
#53
b10000001011001111100001111100111 #
b11101110010011110001110111010111 $
b10000000111000101011110000100010 %
1&
b11101110010011110001110111010111 (
b11101110010011110001110111010111 *
b01 +
#54
b10001001010101110010000100001110 #
b11101110111000010001111111100100 $
b01001001101111100111011011001001 %
0&
1'
b01001001101111100111011011001001 (
b01001001101111100111011011001001 *
b10 +
#55
b00111110011011100000000111110011 #
b10101001100001100111110000001001 $
b01110110001001010100000011111000 %
1&
0'
b10101001100001100111110000001001 (
b10101001100001100111110000001001 *
b01 +
#56
b11111010100001010101011000010000 #
b10111101011011000010111110000010 $
b11010000100110110110100101101101 %
0&
1'
b11010000100110110110100101101101 (
b11010000100110110110100101101101 *
b10 +
#57
b01100100100011010110111110000000 #
b10011101100001001011110111011101 $
b01010010001110110011010100111011 %
b01010010001110110011010100111011 (
b01010010001110110011010100111011 *
#58
b11001000111100101110111000001010 #
b00001000000111110100111110111000 $
b00101101011001101110111010011100 %
1&
0'
b00001000000111110100111110111000 (
b00001000000111110100111110111000 *
b01 +
#59
b10100111011110011101000001001001 #
b11111000001110111100001110000011 $
b11001110001101010011001111011100 %
b11111000001110111100001110000011 (
b11111000001110111100001110000011 *
#60
b01100001101001111011011100011111 #
b10100001000011011100101101011111 $
b01101011000001011001110101100101 %
0&
b01100001101001111011011100011111 (
b01100001101001111011011100011111 *
b00 +
#61
b10110101011101111011001111101101 #
b11011001010100010001100101101000 $
b10011010111001001100010000011001 %
1'
b10011010111001001100010000011001 (
b10011010111001001100010000011001 *
b10 +
#62
b01000111001111001111111101100111 #
b11110100101101100000001000100011 $
b10111000011101011001000110111111 %
1&
0'
b11110100101101100000001000100011 (
b11110100101101100000001000100011 *
b01 +
#63
b01101110010100000011110101000011 #
b11001111011010110000100110010011 $
b00100010011011110000000100100011 %
1'
b01101110010100000011110101000011 (
b01101110010100000011110101000011 *
b11 +
#64
b00110100100101010110101011101000 #
b01001010001000000101000010101001 $
b10100110110011010110001101101010 %
0'
b01001010001000000101000010101001 (
b01001010001000000101000010101001 *
b01 +
#65
b01011101000010001011101001001110 #
b01100101110101011110001111110011 $
b00000110101010010001111000101111 %
1'
b01011101000010001011101001001110 (
b01011101000010001011101001001110 *
b11 +
#66
b10101011101011010010111010000000 #
b11011101101000111111101001100110 $
b01000001001100110000111010101001 %
b10101011101011010010111010000000 (
b10101011101011010010111010000000 *
#67
b10011111100000111101001101010101 #
b10100101000100011110000111100010 $
b00010010011101001000110000000100 %
0&
0'
b10011111100000111101001101010101 (
b10011111100000111101001101010101 *
b00 +
#68
b10100010000000001100000011100111 #
b00001011101101011010100011010001 $
b11011101011110000111000010011011 %
b10100010000000001100000011100111 (
b10100010000000001100000011100111 *
#69
b11011101101010001101101010011000 #
b11011011010000001111010001101101 $
b00111101001001010000101000110001 %
b11011101101010001101101010011000 (
b11011101101010001101101010011000 *
#70
b11100100100000001011010100110111 #
b00110110110000001001100111010001 $
b01101010111011001011100100001011 %
1&
1'
b11100100100000001011010100110111 (
b11100100100000001011010100110111 *
b11 +
#71
b10111001111001001111011010101100 #
b11011000111111101010111100100000 $
b10000101010010111101001101001101 %
0&
0'
b10111001111001001111011010101100 (
b10111001111001001111011010101100 *
b00 +
#72
b00110010011100101100100011011100 #
b10111111011110110111011010101011 $
b11101011000010010100001010111010 %
b00110010011100101100100011011100 (
b00110010011100101100100011011100 *
#73
b00000011111000011010000100000011 #
b10000110101011001111010100010100 $
b10011111001000100100001011011110 %
1'
b10011111001000100100001011011110 (
b10011111001000100100001011011110 *
b10 +
#74
b00110100000000001001010001001001 #
b10111000110100010010010000010110 $
b11000001011001110111001000101100 %
1&
b00110100000000001001010001001001 (
b00110100000000001001010001001001 *
b11 +
#75
b00101101000001100110111100000111 #
b01101010111110001000111010011000 $
b10101110000000100011000100010110 %
0&
0'
b00101101000001100110111100000111 (
b00101101000001100110111100000111 *
b00 +
#76
b10111111010100010011111010000000 #
b01111000110100111100011111101100 $
b01100110010111010001011111111100 %
1&
b01111000110100111100011111101100 (
b01111000110100111100011111101100 *
b01 +
#77
b01010101011101001001100111000000 #
b01100110110110101011001010110100 $
b00110101011001001101100100111100 %
1'
b01010101011101001001100111000000 (
b01010101011101001001100111000000 *
b11 +
#78
b00010000110101111010010110001101 #
b10010110010101110101101011000011 $
b10111000110100110101000001110100 %
0&
b10111000110100110101000001110100 (
b10111000110100110101000001110100 *
b10 +
#79
b10111101010101111111001101010110 #
b11110000111100101001101111001011 $
b01111011011100011101101110010001 %
0'
b10111101010101111111001101010110 (
b10111101010101111111001101010110 *
b00 +
#80
b00001010100001000110110110111011 #
b10110111101010110101000110010111 $
b01000001001100110100000000000101 %
1&
b10110111101010110101000110010111 (
b10110111101010110101000110010111 *
b01 +
#81
b11000011001100000010110011111010 #
b10000000010001010111011000010100 $
b01001000001100000100100001110001 %
b10000000010001010111011000010100 (
b10000000010001010111011000010100 *
#82
b11001001110010001010010011011101 #
b00101100101110000000110001011010 $
b00011011111000101110101010111100 %
1'
b11001001110010001010010011011101 (
b11001001110010001010010011011101 *
b11 +
#83
b11100100011011111011101111000010 #
b11011010001010010001001110110010 $
b10010010111000100101001011100100 %
0&
0'
b11100100011011111011101111000010 (
b11100100011011111011101111000010 *
b00 +
#84
b00111011011011101010011001111101 #
b10010010110100011001010010000100 $
b11011011101100100010011011010001 %
1'
b11011011101100100010011011010001 (
b11011011101100100010011011010001 *
b10 +
#85
b00011100101100001110100100010111 #
b11011011001010001100100110000100 $
b01111100010001110011010011100110 %
1&
b00011100101100001110100100010111 (
b00011100101100001110100100010111 *
b11 +
#86
b10010000100101000101101010101001 #
b00110111111101000011100100001000 $
b11100001001011010011001000000111 %
0&
b11100001001011010011001000000111 (
b11100001001011010011001000000111 *
b10 +
#87
b10111110000000000010000011010100 #
b10100010011010100000101101001100 $
b11000010100110110110110110001111 %
0'
b10111110000000000010000011010100 (
b10111110000000000010000011010100 *
b00 +
#88
b10111101100110001000111110101101 #
b11001111101011001110110111101110 $
b11011110010010111111100111001011 %
b10111101100110001000111110101101 (
b10111101100110001000111110101101 *
#89
b00010110100100000001001100001110 #
b00011100111100010001001110101011 $
b11110110001111011111101010000001 %
1&
b00011100111100010001001110101011 (
b00011100111100010001001110101011 *
b01 +
#90
b10000110100011111011110010000100 #
b11011111111011101000000101100010 $
b01101111011111111111110111001101 %
1'
b10000110100011111011110010000100 (
b10000110100011111011110010000100 *
b11 +
#91
b00100001001000000011011100011111 #
b10001100101010110001010000100010 $
b11001110011110000110101100100000 %
0&
0'
b00100001001000000011011100011111 (
b00100001001000000011011100011111 *
b00 +
#92
b00011101110101010000100011111010 #
b01110111111110010011101101101110 $
b11000011001000101110110010100111 %
b00011101110101010000100011111010 (
b00011101110101010000100011111010 *
#93
b00100101100100011010111010000101 #
b11101110111001100100011110100011 $
b01001111100110010110011010100101 %
1&
1'
b00100101100100011010111010000101 (
b00100101100100011010111010000101 *
b11 +
#94
b00100000101111101001110110011100 #
b11111100111001111001000101110001 $
b00011101001111101101010101111000 %
0&
b00011101001111101101010101111000 (
b00011101001111101101010101111000 *
b10 +
#95
b00001101101100110111000001100101 #
b01110111111011011001111101110001 $
b11001101011011111110101001100101 %
0'
b00001101101100110111000001100101 (
b00001101101100110111000001100101 *
b00 +
#96
b11000001110110111011011101110111 #
b10111111110111101111100101011000 $
b11100010000001010011100100110111 %
1'
b11100010000001010011100100110111 (
b11100010000001010011100100110111 *
b10 +
#97
b00010010111011100111111100100100 #
b10100111100111100100100001101100 $
b01010110001011111110110000001111 %
1&
0'
b10100111100111100100100001101100 (
b10100111100111100100100001101100 *
b01 +
#98
b10001001001111101101011110100010 #
b11101100010110111000010101100110 $
b00101110111000011000111011011001 %
0&
1'
b00101110111000011000111011011001 (
b00101110111000011000111011011001 *
b10 +
#99
b11100001001101011010100011011011 #
b01000100011010110110110101111010 $
b00100000010001111001100101101100 %
1&
0'
b01000100011010110110110101111010 (
b01000100011010110110110101111010 *
b01 +
